{
	"cols": [
		{
			"id": "",
			"label": "Topping",
			"pattern": "",
			"type": "string"
		},
		{
			"id": "",
			"label": "Slices",
			"pattern": "",
			"type": "number"
		}
	],
	"rows": [
		{
			"c": [
				{
					"v": "Male",
					"f": null
				},
				{
					"v": 3,
					"f": null
				}
			]
		},
		{
			"c": [
				{
					"v": "Female",
					"f": null
				},
				{
					"v": 2,
					"f": null
				}
			]
		}
	]
}