('C:\\Users\\Mijail '
 'QA\\Documents\\ToolAutomateCliente\\toolautometricaspy\\Video-Frame '
 '(Rotate)\\V4 Emociones\\dist\\Rotate-Emociones.exe',
 True,
 False,
 False,
 None,
 None,
 False,
 False,
 '<?xml version="1.0" encoding="UTF-8" standalone="yes"?><assembly manifestVersion="1.0" xmlns="urn:schemas-microsoft-com:asm.v1"><assemblyIdentity name="Rotate-Emociones" processorArchitecture="amd64" type="win32" version="1.0.0.0"/><dependency><dependentAssembly><assemblyIdentity language="*" name="Microsoft.Windows.Common-Controls" processorArchitecture="*" publicKeyToken="6595b64144ccf1df" type="win32" version="6.0.0.0"/><compatibility xmlns="urn:schemas-microsoft-com:compatibility.v1"/></dependentAssembly></dependency><compatibility xmlns="urn:schemas-microsoft-com:compatibility.v1"><application><supportedOS Id="{e2011457-1546-43c5-a5fe-008deee3d3f0}"/><supportedOS Id="{35138b9a-5d96-4fbd-8e2d-a2440225f93a}"/><supportedOS Id="{4a2f28e3-53b9-4441-ba9c-d69d4a4a6e38}"/><supportedOS Id="{1f676c76-80e1-4239-95bb-83d0f6d0da78}"/><supportedOS Id="{8e0f7a12-bfb3-4fe8-b9a5-48fd50a15a9a}"/></application></compatibility></assembly>',
 True,
 'Rotate-Emociones.pkg',
 [('PYZ-00.pyz',
   'C:\\Users\\Mijail '
   'QA\\Documents\\ToolAutomateCliente\\toolautometricaspy\\Video-Frame '
   '(Rotate)\\V4 Emociones\\build\\Rotate-Emociones\\PYZ-00.pyz',
   'PYZ'),
  ('struct',
   'c:\\users\\mijail '
   'qa\\appdata\\local\\programs\\python\\python37\\lib\\struct.pyo',
   'PYMODULE'),
  ('pyimod01_os_path',
   'c:\\users\\mijail '
   'qa\\appdata\\local\\programs\\python\\python37\\lib\\site-packages\\PyInstaller\\loader\\pyimod01_os_path.pyc',
   'PYMODULE'),
  ('pyimod02_archive',
   'c:\\users\\mijail '
   'qa\\appdata\\local\\programs\\python\\python37\\lib\\site-packages\\PyInstaller\\loader\\pyimod02_archive.pyc',
   'PYMODULE'),
  ('pyimod03_importers',
   'c:\\users\\mijail '
   'qa\\appdata\\local\\programs\\python\\python37\\lib\\site-packages\\PyInstaller\\loader\\pyimod03_importers.pyc',
   'PYMODULE'),
  ('pyiboot01_bootstrap',
   'c:\\users\\mijail '
   'qa\\appdata\\local\\programs\\python\\python37\\lib\\site-packages\\PyInstaller\\loader\\pyiboot01_bootstrap.py',
   'PYSOURCE'),
  ('Rotate-Emociones',
   'C:\\Users\\Mijail '
   'QA\\Documents\\ToolAutomateCliente\\toolautometricaspy\\Video-Frame '
   '(Rotate)\\V4 Emociones\\Rotate-Emociones.py',
   'PYSOURCE'),
  ('VCRUNTIME140.dll',
   'c:\\users\\mijail '
   'qa\\appdata\\local\\programs\\python\\python37\\VCRUNTIME140.dll',
   'BINARY'),
  ('python37.dll',
   'c:\\users\\mijail '
   'qa\\appdata\\local\\programs\\python\\python37\\python37.dll',
   'BINARY'),
  ('_ssl',
   'c:\\users\\mijail '
   'qa\\appdata\\local\\programs\\python\\python37\\DLLs\\_ssl.pyd',
   'EXTENSION'),
  ('pyexpat',
   'c:\\users\\mijail '
   'qa\\appdata\\local\\programs\\python\\python37\\DLLs\\pyexpat.pyd',
   'EXTENSION'),
  ('unicodedata',
   'c:\\users\\mijail '
   'qa\\appdata\\local\\programs\\python\\python37\\DLLs\\unicodedata.pyd',
   'EXTENSION'),
  ('_hashlib',
   'c:\\users\\mijail '
   'qa\\appdata\\local\\programs\\python\\python37\\DLLs\\_hashlib.pyd',
   'EXTENSION'),
  ('_bz2',
   'c:\\users\\mijail '
   'qa\\appdata\\local\\programs\\python\\python37\\DLLs\\_bz2.pyd',
   'EXTENSION'),
  ('_lzma',
   'c:\\users\\mijail '
   'qa\\appdata\\local\\programs\\python\\python37\\DLLs\\_lzma.pyd',
   'EXTENSION'),
  ('_socket',
   'c:\\users\\mijail '
   'qa\\appdata\\local\\programs\\python\\python37\\DLLs\\_socket.pyd',
   'EXTENSION'),
  ('select',
   'c:\\users\\mijail '
   'qa\\appdata\\local\\programs\\python\\python37\\DLLs\\select.pyd',
   'EXTENSION'),
  ('libssl-1_1.dll',
   'c:\\users\\mijail '
   'qa\\appdata\\local\\programs\\python\\python37\\DLLs\\libssl-1_1.dll',
   'BINARY'),
  ('libcrypto-1_1.dll',
   'c:\\users\\mijail '
   'qa\\appdata\\local\\programs\\python\\python37\\DLLs\\libcrypto-1_1.dll',
   'BINARY'),
  ('base_library.zip',
   'C:\\Users\\Mijail '
   'QA\\Documents\\ToolAutomateCliente\\toolautometricaspy\\Video-Frame '
   '(Rotate)\\V4 Emociones\\build\\Rotate-Emociones\\base_library.zip',
   'DATA'),
  ('Rotate-Emociones.exe.manifest',
   'C:\\Users\\Mijail '
   'QA\\Documents\\ToolAutomateCliente\\toolautometricaspy\\Video-Frame '
   '(Rotate)\\V4 '
   'Emociones\\build\\Rotate-Emociones\\Rotate-Emociones.exe.manifest',
   'BINARY'),
  ('pyi-windows-manifest-filename Rotate-Emociones.exe.manifest',
   '',
   'OPTION')],
 [],
 False,
 False,
 1577365608,
 [('run.exe',
   'c:\\users\\mijail '
   'qa\\appdata\\local\\programs\\python\\python37\\lib\\site-packages\\PyInstaller\\bootloader\\Windows-64bit\\run.exe',
   'EXECUTABLE')])
