('C:\\Users\\Mijail '
 'QA\\Documents\\ToolAutomateCliente\\toolautometricaspy\\Api-Rest\\Api-Flask-master\\Example\\build\\app-Example-2\\PYZ-00.pyz',
 [('multiprocessing.popen_fork',
   'c:\\users\\mijail '
   'qa\\appdata\\local\\programs\\python\\python37\\lib\\multiprocessing\\popen_fork.py',
   'PYMODULE'),
  ('multiprocessing.connection',
   'c:\\users\\mijail '
   'qa\\appdata\\local\\programs\\python\\python37\\lib\\multiprocessing\\connection.py',
   'PYMODULE'),
  ('multiprocessing.resource_sharer',
   'c:\\users\\mijail '
   'qa\\appdata\\local\\programs\\python\\python37\\lib\\multiprocessing\\resource_sharer.py',
   'PYMODULE'),
  ('multiprocessing.process',
   'c:\\users\\mijail '
   'qa\\appdata\\local\\programs\\python\\python37\\lib\\multiprocessing\\process.py',
   'PYMODULE'),
  ('xmlrpc.client',
   'c:\\users\\mijail '
   'qa\\appdata\\local\\programs\\python\\python37\\lib\\xmlrpc\\client.py',
   'PYMODULE'),
  ('xmlrpc',
   'c:\\users\\mijail '
   'qa\\appdata\\local\\programs\\python\\python37\\lib\\xmlrpc\\__init__.py',
   'PYMODULE'),
  ('decimal',
   'c:\\users\\mijail '
   'qa\\appdata\\local\\programs\\python\\python37\\lib\\decimal.py',
   'PYMODULE'),
  ('_pydecimal',
   'c:\\users\\mijail '
   'qa\\appdata\\local\\programs\\python\\python37\\lib\\_pydecimal.py',
   'PYMODULE'),
  ('contextvars',
   'c:\\users\\mijail '
   'qa\\appdata\\local\\programs\\python\\python37\\lib\\contextvars.py',
   'PYMODULE'),
  ('numbers',
   'c:\\users\\mijail '
   'qa\\appdata\\local\\programs\\python\\python37\\lib\\numbers.py',
   'PYMODULE'),
  ('hmac',
   'c:\\users\\mijail '
   'qa\\appdata\\local\\programs\\python\\python37\\lib\\hmac.py',
   'PYMODULE'),
  ('multiprocessing.context',
   'c:\\users\\mijail '
   'qa\\appdata\\local\\programs\\python\\python37\\lib\\multiprocessing\\context.py',
   'PYMODULE'),
  ('multiprocessing.popen_forkserver',
   'c:\\users\\mijail '
   'qa\\appdata\\local\\programs\\python\\python37\\lib\\multiprocessing\\popen_forkserver.py',
   'PYMODULE'),
  ('multiprocessing.popen_spawn_posix',
   'c:\\users\\mijail '
   'qa\\appdata\\local\\programs\\python\\python37\\lib\\multiprocessing\\popen_spawn_posix.py',
   'PYMODULE'),
  ('multiprocessing.semaphore_tracker',
   'c:\\users\\mijail '
   'qa\\appdata\\local\\programs\\python\\python37\\lib\\multiprocessing\\semaphore_tracker.py',
   'PYMODULE'),
  ('multiprocessing.forkserver',
   'c:\\users\\mijail '
   'qa\\appdata\\local\\programs\\python\\python37\\lib\\multiprocessing\\forkserver.py',
   'PYMODULE'),
  ('multiprocessing.sharedctypes',
   'c:\\users\\mijail '
   'qa\\appdata\\local\\programs\\python\\python37\\lib\\multiprocessing\\sharedctypes.py',
   'PYMODULE'),
  ('multiprocessing.heap',
   'c:\\users\\mijail '
   'qa\\appdata\\local\\programs\\python\\python37\\lib\\multiprocessing\\heap.py',
   'PYMODULE'),
  ('ctypes',
   'c:\\users\\mijail '
   'qa\\appdata\\local\\programs\\python\\python37\\lib\\ctypes\\__init__.py',
   'PYMODULE'),
  ('ctypes._endian',
   'c:\\users\\mijail '
   'qa\\appdata\\local\\programs\\python\\python37\\lib\\ctypes\\_endian.py',
   'PYMODULE'),
  ('multiprocessing.pool',
   'c:\\users\\mijail '
   'qa\\appdata\\local\\programs\\python\\python37\\lib\\multiprocessing\\pool.py',
   'PYMODULE'),
  ('multiprocessing.dummy',
   'c:\\users\\mijail '
   'qa\\appdata\\local\\programs\\python\\python37\\lib\\multiprocessing\\dummy\\__init__.py',
   'PYMODULE'),
  ('multiprocessing.dummy.connection',
   'c:\\users\\mijail '
   'qa\\appdata\\local\\programs\\python\\python37\\lib\\multiprocessing\\dummy\\connection.py',
   'PYMODULE'),
  ('queue',
   'c:\\users\\mijail '
   'qa\\appdata\\local\\programs\\python\\python37\\lib\\queue.py',
   'PYMODULE'),
  ('multiprocessing.queues',
   'c:\\users\\mijail '
   'qa\\appdata\\local\\programs\\python\\python37\\lib\\multiprocessing\\queues.py',
   'PYMODULE'),
  ('multiprocessing.synchronize',
   'c:\\users\\mijail '
   'qa\\appdata\\local\\programs\\python\\python37\\lib\\multiprocessing\\synchronize.py',
   'PYMODULE'),
  ('multiprocessing.managers',
   'c:\\users\\mijail '
   'qa\\appdata\\local\\programs\\python\\python37\\lib\\multiprocessing\\managers.py',
   'PYMODULE'),
  ('multiprocessing.reduction',
   'c:\\users\\mijail '
   'qa\\appdata\\local\\programs\\python\\python37\\lib\\multiprocessing\\reduction.py',
   'PYMODULE'),
  ('multiprocessing.util',
   'c:\\users\\mijail '
   'qa\\appdata\\local\\programs\\python\\python37\\lib\\multiprocessing\\util.py',
   'PYMODULE'),
  ('multiprocessing.popen_spawn_win32',
   'c:\\users\\mijail '
   'qa\\appdata\\local\\programs\\python\\python37\\lib\\multiprocessing\\popen_spawn_win32.py',
   'PYMODULE'),
  ('multiprocessing.spawn',
   'c:\\users\\mijail '
   'qa\\appdata\\local\\programs\\python\\python37\\lib\\multiprocessing\\spawn.py',
   'PYMODULE'),
  ('multiprocessing',
   'c:\\users\\mijail '
   'qa\\appdata\\local\\programs\\python\\python37\\lib\\multiprocessing\\__init__.py',
   'PYMODULE'),
  ('pkg_resources',
   'c:\\users\\mijail '
   'qa\\appdata\\local\\programs\\python\\python37\\lib\\site-packages\\pkg_resources\\__init__.py',
   'PYMODULE'),
  ('pkg_resources._vendor.six',
   'c:\\users\\mijail '
   'qa\\appdata\\local\\programs\\python\\python37\\lib\\site-packages\\pkg_resources\\_vendor\\six.py',
   'PYMODULE'),
  ('pkg_resources._vendor.packaging.specifiers',
   'c:\\users\\mijail '
   'qa\\appdata\\local\\programs\\python\\python37\\lib\\site-packages\\pkg_resources\\_vendor\\packaging\\specifiers.py',
   'PYMODULE'),
  ('pkg_resources._vendor.pyparsing',
   'c:\\users\\mijail '
   'qa\\appdata\\local\\programs\\python\\python37\\lib\\site-packages\\pkg_resources\\_vendor\\pyparsing.py',
   'PYMODULE'),
  ('uuid',
   'c:\\users\\mijail '
   'qa\\appdata\\local\\programs\\python\\python37\\lib\\uuid.py',
   'PYMODULE'),
  ('ctypes.util',
   'c:\\users\\mijail '
   'qa\\appdata\\local\\programs\\python\\python37\\lib\\ctypes\\util.py',
   'PYMODULE'),
  ('ctypes._aix',
   'c:\\users\\mijail '
   'qa\\appdata\\local\\programs\\python\\python37\\lib\\ctypes\\_aix.py',
   'PYMODULE'),
  ('ctypes.macholib.dyld',
   'c:\\users\\mijail '
   'qa\\appdata\\local\\programs\\python\\python37\\lib\\ctypes\\macholib\\dyld.py',
   'PYMODULE'),
  ('ctypes.macholib',
   'c:\\users\\mijail '
   'qa\\appdata\\local\\programs\\python\\python37\\lib\\ctypes\\macholib\\__init__.py',
   'PYMODULE'),
  ('ctypes.macholib.dylib',
   'c:\\users\\mijail '
   'qa\\appdata\\local\\programs\\python\\python37\\lib\\ctypes\\macholib\\dylib.py',
   'PYMODULE'),
  ('ctypes.macholib.framework',
   'c:\\users\\mijail '
   'qa\\appdata\\local\\programs\\python\\python37\\lib\\ctypes\\macholib\\framework.py',
   'PYMODULE'),
  ('pkg_resources._vendor.packaging.version',
   'c:\\users\\mijail '
   'qa\\appdata\\local\\programs\\python\\python37\\lib\\site-packages\\pkg_resources\\_vendor\\packaging\\version.py',
   'PYMODULE'),
  ('pkg_resources._vendor.appdirs',
   'c:\\users\\mijail '
   'qa\\appdata\\local\\programs\\python\\python37\\lib\\site-packages\\pkg_resources\\_vendor\\appdirs.py',
   'PYMODULE'),
  ('pkg_resources._vendor.packaging.requirements',
   'c:\\users\\mijail '
   'qa\\appdata\\local\\programs\\python\\python37\\lib\\site-packages\\pkg_resources\\_vendor\\packaging\\requirements.py',
   'PYMODULE'),
  ('pkg_resources._vendor.packaging.markers',
   'c:\\users\\mijail '
   'qa\\appdata\\local\\programs\\python\\python37\\lib\\site-packages\\pkg_resources\\_vendor\\packaging\\markers.py',
   'PYMODULE'),
  ('pkg_resources._vendor.packaging._compat',
   'c:\\users\\mijail '
   'qa\\appdata\\local\\programs\\python\\python37\\lib\\site-packages\\pkg_resources\\_vendor\\packaging\\_compat.py',
   'PYMODULE'),
  ('pkg_resources._vendor.packaging.__about__',
   'c:\\users\\mijail '
   'qa\\appdata\\local\\programs\\python\\python37\\lib\\site-packages\\pkg_resources\\_vendor\\packaging\\__about__.py',
   'PYMODULE'),
  ('pkg_resources._vendor.packaging',
   'c:\\users\\mijail '
   'qa\\appdata\\local\\programs\\python\\python37\\lib\\site-packages\\pkg_resources\\_vendor\\packaging\\__init__.py',
   'PYMODULE'),
  ('pkg_resources._vendor.packaging.utils',
   'c:\\users\\mijail '
   'qa\\appdata\\local\\programs\\python\\python37\\lib\\site-packages\\pkg_resources\\_vendor\\packaging\\utils.py',
   'PYMODULE'),
  ('pkg_resources._vendor.packaging._structures',
   'c:\\users\\mijail '
   'qa\\appdata\\local\\programs\\python\\python37\\lib\\site-packages\\pkg_resources\\_vendor\\packaging\\_structures.py',
   'PYMODULE'),
  ('pkg_resources._vendor',
   'c:\\users\\mijail '
   'qa\\appdata\\local\\programs\\python\\python37\\lib\\site-packages\\pkg_resources\\_vendor\\__init__.py',
   'PYMODULE'),
  ('__main__',
   'C:\\Users\\Mijail '
   'QA\\AppData\\Local\\Programs\\Python\\Python37\\Scripts\\pyinstaller.exe\\__main__.py',
   'PYMODULE'),
  ('PyInstaller.__main__',
   'c:\\users\\mijail '
   'qa\\appdata\\local\\programs\\python\\python37\\lib\\site-packages\\PyInstaller\\__main__.py',
   'PYMODULE'),
  ('PyInstaller.building.build_main',
   'c:\\users\\mijail '
   'qa\\appdata\\local\\programs\\python\\python37\\lib\\site-packages\\PyInstaller\\building\\build_main.py',
   'PYMODULE'),
  ('PyInstaller.building',
   'c:\\users\\mijail '
   'qa\\appdata\\local\\programs\\python\\python37\\lib\\site-packages\\PyInstaller\\building\\__init__.py',
   'PYMODULE'),
  ('PyInstaller.config',
   'c:\\users\\mijail '
   'qa\\appdata\\local\\programs\\python\\python37\\lib\\site-packages\\PyInstaller\\config.py',
   'PYMODULE'),
  ('PyInstaller.utils.win32.winmanifest',
   'c:\\users\\mijail '
   'qa\\appdata\\local\\programs\\python\\python37\\lib\\site-packages\\PyInstaller\\utils\\win32\\winmanifest.py',
   'PYMODULE'),
  ('PyInstaller.utils.win32.winresource',
   'c:\\users\\mijail '
   'qa\\appdata\\local\\programs\\python\\python37\\lib\\site-packages\\PyInstaller\\utils\\win32\\winresource.py',
   'PYMODULE'),
  ('xml.dom.minidom',
   'c:\\users\\mijail '
   'qa\\appdata\\local\\programs\\python\\python37\\lib\\xml\\dom\\minidom.py',
   'PYMODULE'),
  ('xml.dom.pulldom',
   'c:\\users\\mijail '
   'qa\\appdata\\local\\programs\\python\\python37\\lib\\xml\\dom\\pulldom.py',
   'PYMODULE'),
  ('xml.sax.handler',
   'c:\\users\\mijail '
   'qa\\appdata\\local\\programs\\python\\python37\\lib\\xml\\sax\\handler.py',
   'PYMODULE'),
  ('xml.sax',
   'c:\\users\\mijail '
   'qa\\appdata\\local\\programs\\python\\python37\\lib\\xml\\sax\\__init__.py',
   'PYMODULE'),
  ('xml.sax.expatreader',
   'c:\\users\\mijail '
   'qa\\appdata\\local\\programs\\python\\python37\\lib\\xml\\sax\\expatreader.py',
   'PYMODULE'),
  ('xml.sax._exceptions',
   'c:\\users\\mijail '
   'qa\\appdata\\local\\programs\\python\\python37\\lib\\xml\\sax\\_exceptions.py',
   'PYMODULE'),
  ('xml.sax.saxutils',
   'c:\\users\\mijail '
   'qa\\appdata\\local\\programs\\python\\python37\\lib\\xml\\sax\\saxutils.py',
   'PYMODULE'),
  ('urllib.request',
   'c:\\users\\mijail '
   'qa\\appdata\\local\\programs\\python\\python37\\lib\\urllib\\request.py',
   'PYMODULE'),
  ('getpass',
   'c:\\users\\mijail '
   'qa\\appdata\\local\\programs\\python\\python37\\lib\\getpass.py',
   'PYMODULE'),
  ('nturl2path',
   'c:\\users\\mijail '
   'qa\\appdata\\local\\programs\\python\\python37\\lib\\nturl2path.py',
   'PYMODULE'),
  ('ftplib',
   'c:\\users\\mijail '
   'qa\\appdata\\local\\programs\\python\\python37\\lib\\ftplib.py',
   'PYMODULE'),
  ('netrc',
   'c:\\users\\mijail '
   'qa\\appdata\\local\\programs\\python\\python37\\lib\\netrc.py',
   'PYMODULE'),
  ('http.cookiejar',
   'c:\\users\\mijail '
   'qa\\appdata\\local\\programs\\python\\python37\\lib\\http\\cookiejar.py',
   'PYMODULE'),
  ('urllib.response',
   'c:\\users\\mijail '
   'qa\\appdata\\local\\programs\\python\\python37\\lib\\urllib\\response.py',
   'PYMODULE'),
  ('urllib.error',
   'c:\\users\\mijail '
   'qa\\appdata\\local\\programs\\python\\python37\\lib\\urllib\\error.py',
   'PYMODULE'),
  ('xml.sax.xmlreader',
   'c:\\users\\mijail '
   'qa\\appdata\\local\\programs\\python\\python37\\lib\\xml\\sax\\xmlreader.py',
   'PYMODULE'),
  ('xml.dom.expatbuilder',
   'c:\\users\\mijail '
   'qa\\appdata\\local\\programs\\python\\python37\\lib\\xml\\dom\\expatbuilder.py',
   'PYMODULE'),
  ('xml.dom.NodeFilter',
   'c:\\users\\mijail '
   'qa\\appdata\\local\\programs\\python\\python37\\lib\\xml\\dom\\NodeFilter.py',
   'PYMODULE'),
  ('xml.dom.xmlbuilder',
   'c:\\users\\mijail '
   'qa\\appdata\\local\\programs\\python\\python37\\lib\\xml\\dom\\xmlbuilder.py',
   'PYMODULE'),
  ('xml.dom.minicompat',
   'c:\\users\\mijail '
   'qa\\appdata\\local\\programs\\python\\python37\\lib\\xml\\dom\\minicompat.py',
   'PYMODULE'),
  ('xml.dom.domreg',
   'c:\\users\\mijail '
   'qa\\appdata\\local\\programs\\python\\python37\\lib\\xml\\dom\\domreg.py',
   'PYMODULE'),
  ('xml.dom',
   'c:\\users\\mijail '
   'qa\\appdata\\local\\programs\\python\\python37\\lib\\xml\\dom\\__init__.py',
   'PYMODULE'),
  ('PyInstaller.utils.win32',
   'c:\\users\\mijail '
   'qa\\appdata\\local\\programs\\python\\python37\\lib\\site-packages\\PyInstaller\\utils\\win32\\__init__.py',
   'PYMODULE'),
  ('PyInstaller.utils.win32.versioninfo',
   'c:\\users\\mijail '
   'qa\\appdata\\local\\programs\\python\\python37\\lib\\site-packages\\PyInstaller\\utils\\win32\\versioninfo.py',
   'PYMODULE'),
  ('pefile',
   'c:\\users\\mijail '
   'qa\\appdata\\local\\programs\\python\\python37\\lib\\site-packages\\pefile.py',
   'PYMODULE'),
  ('ordlookup',
   'c:\\users\\mijail '
   'qa\\appdata\\local\\programs\\python\\python37\\lib\\site-packages\\ordlookup\\__init__.py',
   'PYMODULE'),
  ('ordlookup.oleaut32',
   'c:\\users\\mijail '
   'qa\\appdata\\local\\programs\\python\\python37\\lib\\site-packages\\ordlookup\\oleaut32.py',
   'PYMODULE'),
  ('ordlookup.ws2_32',
   'c:\\users\\mijail '
   'qa\\appdata\\local\\programs\\python\\python37\\lib\\site-packages\\ordlookup\\ws2_32.py',
   'PYMODULE'),
  ('PyInstaller.utils.win32.icon',
   'c:\\users\\mijail '
   'qa\\appdata\\local\\programs\\python\\python37\\lib\\site-packages\\PyInstaller\\utils\\win32\\icon.py',
   'PYMODULE'),
  ('PyInstaller.utils.win32.winutils',
   'c:\\users\\mijail '
   'qa\\appdata\\local\\programs\\python\\python37\\lib\\site-packages\\PyInstaller\\utils\\win32\\winutils.py',
   'PYMODULE'),
  ('site',
   'c:\\users\\mijail '
   'qa\\appdata\\local\\programs\\python\\python37\\lib\\site-packages\\PyInstaller\\fake-modules\\site.py',
   'PYMODULE'),
  ('PyInstaller.utils',
   'c:\\users\\mijail '
   'qa\\appdata\\local\\programs\\python\\python37\\lib\\site-packages\\PyInstaller\\utils\\__init__.py',
   'PYMODULE'),
  ('PyInstaller.configure',
   'c:\\users\\mijail '
   'qa\\appdata\\local\\programs\\python\\python37\\lib\\site-packages\\PyInstaller\\configure.py',
   'PYMODULE'),
  ('PyInstaller.archive.pyz_crypto',
   'c:\\users\\mijail '
   'qa\\appdata\\local\\programs\\python\\python37\\lib\\site-packages\\PyInstaller\\archive\\pyz_crypto.py',
   'PYMODULE'),
  ('PyInstaller.archive',
   'c:\\users\\mijail '
   'qa\\appdata\\local\\programs\\python\\python37\\lib\\site-packages\\PyInstaller\\archive\\__init__.py',
   'PYMODULE'),
  ('PyInstaller.depend.utils',
   'c:\\users\\mijail '
   'qa\\appdata\\local\\programs\\python\\python37\\lib\\site-packages\\PyInstaller\\depend\\utils.py',
   'PYMODULE'),
  ('distutils.spawn',
   'c:\\users\\mijail '
   'qa\\appdata\\local\\programs\\python\\python37\\lib\\distutils\\spawn.py',
   'PYMODULE'),
  ('distutils.sysconfig',
   'c:\\users\\mijail '
   'qa\\appdata\\local\\programs\\python\\python37\\lib\\distutils\\sysconfig.py',
   'PYMODULE'),
  ('distutils.text_file',
   'c:\\users\\mijail '
   'qa\\appdata\\local\\programs\\python\\python37\\lib\\distutils\\text_file.py',
   'PYMODULE'),
  ('_osx_support',
   'c:\\users\\mijail '
   'qa\\appdata\\local\\programs\\python\\python37\\lib\\_osx_support.py',
   'PYMODULE'),
  ('distutils.log',
   'c:\\users\\mijail '
   'qa\\appdata\\local\\programs\\python\\python37\\lib\\distutils\\log.py',
   'PYMODULE'),
  ('distutils',
   'c:\\users\\mijail '
   'qa\\appdata\\local\\programs\\python\\python37\\lib\\distutils\\__init__.py',
   'PYMODULE'),
  ('distutils.debug',
   'c:\\users\\mijail '
   'qa\\appdata\\local\\programs\\python\\python37\\lib\\distutils\\debug.py',
   'PYMODULE'),
  ('distutils.errors',
   'c:\\users\\mijail '
   'qa\\appdata\\local\\programs\\python\\python37\\lib\\distutils\\errors.py',
   'PYMODULE'),
  ('PyInstaller.depend.dylib',
   'c:\\users\\mijail '
   'qa\\appdata\\local\\programs\\python\\python37\\lib\\site-packages\\PyInstaller\\depend\\dylib.py',
   'PYMODULE'),
  ('PyInstaller.lib.modulegraph.modulegraph',
   'c:\\users\\mijail '
   'qa\\appdata\\local\\programs\\python\\python37\\lib\\site-packages\\PyInstaller\\lib\\modulegraph\\modulegraph.py',
   'PYMODULE'),
  ('PyInstaller.lib.modulegraph._compat',
   'c:\\users\\mijail '
   'qa\\appdata\\local\\programs\\python\\python37\\lib\\site-packages\\PyInstaller\\lib\\modulegraph\\_compat.py',
   'PYMODULE'),
  ('PyInstaller.lib.modulegraph.zipio',
   'c:\\users\\mijail '
   'qa\\appdata\\local\\programs\\python\\python37\\lib\\site-packages\\PyInstaller\\lib\\modulegraph\\zipio.py',
   'PYMODULE'),
  ('altgraph',
   'c:\\users\\mijail '
   'qa\\appdata\\local\\programs\\python\\python37\\lib\\site-packages\\altgraph\\__init__.py',
   'PYMODULE'),
  ('altgraph.ObjectGraph',
   'c:\\users\\mijail '
   'qa\\appdata\\local\\programs\\python\\python37\\lib\\site-packages\\altgraph\\ObjectGraph.py',
   'PYMODULE'),
  ('altgraph.GraphUtil',
   'c:\\users\\mijail '
   'qa\\appdata\\local\\programs\\python\\python37\\lib\\site-packages\\altgraph\\GraphUtil.py',
   'PYMODULE'),
  ('altgraph.Graph',
   'c:\\users\\mijail '
   'qa\\appdata\\local\\programs\\python\\python37\\lib\\site-packages\\altgraph\\Graph.py',
   'PYMODULE'),
  ('PyInstaller.lib.modulegraph.util',
   'c:\\users\\mijail '
   'qa\\appdata\\local\\programs\\python\\python37\\lib\\site-packages\\PyInstaller\\lib\\modulegraph\\util.py',
   'PYMODULE'),
  ('PyInstaller.lib.modulegraph',
   'c:\\users\\mijail '
   'qa\\appdata\\local\\programs\\python\\python37\\lib\\site-packages\\PyInstaller\\lib\\modulegraph\\__init__.py',
   'PYMODULE'),
  ('PyInstaller.lib',
   'c:\\users\\mijail '
   'qa\\appdata\\local\\programs\\python\\python37\\lib\\site-packages\\PyInstaller\\lib\\__init__.py',
   'PYMODULE'),
  ('PyInstaller.building.utils',
   'c:\\users\\mijail '
   'qa\\appdata\\local\\programs\\python\\python37\\lib\\site-packages\\PyInstaller\\building\\utils.py',
   'PYMODULE'),
  ('PyInstaller.building.toc_conversion',
   'c:\\users\\mijail '
   'qa\\appdata\\local\\programs\\python\\python37\\lib\\site-packages\\PyInstaller\\building\\toc_conversion.py',
   'PYMODULE'),
  ('PyInstaller.building.osx',
   'c:\\users\\mijail '
   'qa\\appdata\\local\\programs\\python\\python37\\lib\\site-packages\\PyInstaller\\building\\osx.py',
   'PYMODULE'),
  ('PyInstaller.building.imphook',
   'c:\\users\\mijail '
   'qa\\appdata\\local\\programs\\python\\python37\\lib\\site-packages\\PyInstaller\\building\\imphook.py',
   'PYMODULE'),
  ('PyInstaller.building.imphookapi',
   'c:\\users\\mijail '
   'qa\\appdata\\local\\programs\\python\\python37\\lib\\site-packages\\PyInstaller\\building\\imphookapi.py',
   'PYMODULE'),
  ('PyInstaller.building.datastruct',
   'c:\\users\\mijail '
   'qa\\appdata\\local\\programs\\python\\python37\\lib\\site-packages\\PyInstaller\\building\\datastruct.py',
   'PYMODULE'),
  ('PyInstaller.building.api',
   'c:\\users\\mijail '
   'qa\\appdata\\local\\programs\\python\\python37\\lib\\site-packages\\PyInstaller\\building\\api.py',
   'PYMODULE'),
  ('PyInstaller.utils.osx',
   'c:\\users\\mijail '
   'qa\\appdata\\local\\programs\\python\\python37\\lib\\site-packages\\PyInstaller\\utils\\osx.py',
   'PYMODULE'),
  ('PyInstaller.archive.writers',
   'c:\\users\\mijail '
   'qa\\appdata\\local\\programs\\python\\python37\\lib\\site-packages\\PyInstaller\\archive\\writers.py',
   'PYMODULE'),
  ('PyInstaller.loader.pyimod02_archive',
   'c:\\users\\mijail '
   'qa\\appdata\\local\\programs\\python\\python37\\lib\\site-packages\\PyInstaller\\loader\\pyimod02_archive.py',
   'PYMODULE'),
  ('PyInstaller.loader',
   'c:\\users\\mijail '
   'qa\\appdata\\local\\programs\\python\\python37\\lib\\site-packages\\PyInstaller\\loader\\__init__.py',
   'PYMODULE'),
  ('PyInstaller.depend.analysis',
   'c:\\users\\mijail '
   'qa\\appdata\\local\\programs\\python\\python37\\lib\\site-packages\\PyInstaller\\depend\\analysis.py',
   'PYMODULE'),
  ('PyInstaller.utils.hooks',
   'c:\\users\\mijail '
   'qa\\appdata\\local\\programs\\python\\python37\\lib\\site-packages\\PyInstaller\\utils\\hooks\\__init__.py',
   'PYMODULE'),
  ('PyInstaller.utils.hooks.win32',
   'c:\\users\\mijail '
   'qa\\appdata\\local\\programs\\python\\python37\\lib\\site-packages\\PyInstaller\\utils\\hooks\\win32.py',
   'PYMODULE'),
  ('PyInstaller.utils.hooks.qt',
   'c:\\users\\mijail '
   'qa\\appdata\\local\\programs\\python\\python37\\lib\\site-packages\\PyInstaller\\utils\\hooks\\qt.py',
   'PYMODULE'),
  ('PyInstaller.utils.hooks.gi',
   'c:\\users\\mijail '
   'qa\\appdata\\local\\programs\\python\\python37\\lib\\site-packages\\PyInstaller\\utils\\hooks\\gi.py',
   'PYMODULE'),
  ('PyInstaller.utils.hooks.django',
   'c:\\users\\mijail '
   'qa\\appdata\\local\\programs\\python\\python37\\lib\\site-packages\\PyInstaller\\utils\\hooks\\django.py',
   'PYMODULE'),
  ('PyInstaller.exceptions',
   'c:\\users\\mijail '
   'qa\\appdata\\local\\programs\\python\\python37\\lib\\site-packages\\PyInstaller\\exceptions.py',
   'PYMODULE'),
  ('PyInstaller.lib.modulegraph.find_modules',
   'c:\\users\\mijail '
   'qa\\appdata\\local\\programs\\python\\python37\\lib\\site-packages\\PyInstaller\\lib\\modulegraph\\find_modules.py',
   'PYMODULE'),
  ('xml.etree',
   'c:\\users\\mijail '
   'qa\\appdata\\local\\programs\\python\\python37\\lib\\xml\\etree\\__init__.py',
   'PYMODULE'),
  ('PyInstaller.depend.bindepend',
   'c:\\users\\mijail '
   'qa\\appdata\\local\\programs\\python\\python37\\lib\\site-packages\\PyInstaller\\depend\\bindepend.py',
   'PYMODULE'),
  ('PyInstaller.depend',
   'c:\\users\\mijail '
   'qa\\appdata\\local\\programs\\python\\python37\\lib\\site-packages\\PyInstaller\\depend\\__init__.py',
   'PYMODULE'),
  ('PyInstaller.utils.misc',
   'c:\\users\\mijail '
   'qa\\appdata\\local\\programs\\python\\python37\\lib\\site-packages\\PyInstaller\\utils\\misc.py',
   'PYMODULE'),
  ('PyInstaller.building.makespec',
   'c:\\users\\mijail '
   'qa\\appdata\\local\\programs\\python\\python37\\lib\\site-packages\\PyInstaller\\building\\makespec.py',
   'PYMODULE'),
  ('PyInstaller.building.templates',
   'c:\\users\\mijail '
   'qa\\appdata\\local\\programs\\python\\python37\\lib\\site-packages\\PyInstaller\\building\\templates.py',
   'PYMODULE'),
  ('distutils.version',
   'c:\\users\\mijail '
   'qa\\appdata\\local\\programs\\python\\python37\\lib\\distutils\\version.py',
   'PYMODULE'),
  ('PyInstaller.compat',
   'c:\\users\\mijail '
   'qa\\appdata\\local\\programs\\python\\python37\\lib\\site-packages\\PyInstaller\\compat.py',
   'PYMODULE'),
  ('win32ctypes.pywin32.win32api',
   'c:\\users\\mijail '
   'qa\\appdata\\local\\programs\\python\\python37\\lib\\site-packages\\win32ctypes\\pywin32\\win32api.py',
   'PYMODULE'),
  ('win32ctypes.core',
   'c:\\users\\mijail '
   'qa\\appdata\\local\\programs\\python\\python37\\lib\\site-packages\\win32ctypes\\core\\__init__.py',
   'PYMODULE'),
  ('win32ctypes',
   'c:\\users\\mijail '
   'qa\\appdata\\local\\programs\\python\\python37\\lib\\site-packages\\win32ctypes\\__init__.py',
   'PYMODULE'),
  ('win32ctypes.version',
   'c:\\users\\mijail '
   'qa\\appdata\\local\\programs\\python\\python37\\lib\\site-packages\\win32ctypes\\version.py',
   'PYMODULE'),
  ('win32ctypes.core._winerrors',
   'c:\\users\\mijail '
   'qa\\appdata\\local\\programs\\python\\python37\\lib\\site-packages\\win32ctypes\\core\\_winerrors.py',
   'PYMODULE'),
  ('win32ctypes.pywin32.pywintypes',
   'c:\\users\\mijail '
   'qa\\appdata\\local\\programs\\python\\python37\\lib\\site-packages\\win32ctypes\\pywin32\\pywintypes.py',
   'PYMODULE'),
  ('win32ctypes.pywin32',
   'c:\\users\\mijail '
   'qa\\appdata\\local\\programs\\python\\python37\\lib\\site-packages\\win32ctypes\\pywin32\\__init__.py',
   'PYMODULE'),
  ('win32ctypes.pywin32.win32cred',
   'c:\\users\\mijail '
   'qa\\appdata\\local\\programs\\python\\python37\\lib\\site-packages\\win32ctypes\\pywin32\\win32cred.py',
   'PYMODULE'),
  ('PyInstaller.log',
   'c:\\users\\mijail '
   'qa\\appdata\\local\\programs\\python\\python37\\lib\\site-packages\\PyInstaller\\log.py',
   'PYMODULE'),
  ('PyInstaller',
   'c:\\users\\mijail '
   'qa\\appdata\\local\\programs\\python\\python37\\lib\\site-packages\\PyInstaller\\__init__.py',
   'PYMODULE'),
  ('PyInstaller.utils.git',
   'c:\\users\\mijail '
   'qa\\appdata\\local\\programs\\python\\python37\\lib\\site-packages\\PyInstaller\\utils\\git.py',
   'PYMODULE'),
  ('PyInstaller.utils._gitrevision',
   'c:\\users\\mijail '
   'qa\\appdata\\local\\programs\\python\\python37\\lib\\site-packages\\PyInstaller\\utils\\_gitrevision.py',
   'PYMODULE'),
  ('sysconfig',
   'c:\\users\\mijail '
   'qa\\appdata\\local\\programs\\python\\python37\\lib\\sysconfig.py',
   'PYMODULE'),
  ('pkg_resources.py31compat',
   'c:\\users\\mijail '
   'qa\\appdata\\local\\programs\\python\\python37\\lib\\site-packages\\pkg_resources\\py31compat.py',
   'PYMODULE'),
  ('pkg_resources.extern',
   'c:\\users\\mijail '
   'qa\\appdata\\local\\programs\\python\\python37\\lib\\site-packages\\pkg_resources\\extern\\__init__.py',
   'PYMODULE'),
  ('imp',
   'c:\\users\\mijail '
   'qa\\appdata\\local\\programs\\python\\python37\\lib\\imp.py',
   'PYMODULE'),
  ('ntpath',
   'c:\\users\\mijail '
   'qa\\appdata\\local\\programs\\python\\python37\\lib\\ntpath.py',
   'PYMODULE'),
  ('_strptime',
   'c:\\users\\mijail '
   'qa\\appdata\\local\\programs\\python\\python37\\lib\\_strptime.py',
   'PYMODULE'),
  ('datetime',
   'c:\\users\\mijail '
   'qa\\appdata\\local\\programs\\python\\python37\\lib\\datetime.py',
   'PYMODULE'),
  ('fnmatch',
   'c:\\users\\mijail '
   'qa\\appdata\\local\\programs\\python\\python37\\lib\\fnmatch.py',
   'PYMODULE'),
  ('_compat_pickle',
   'c:\\users\\mijail '
   'qa\\appdata\\local\\programs\\python\\python37\\lib\\_compat_pickle.py',
   'PYMODULE'),
  ('__future__',
   'c:\\users\\mijail '
   'qa\\appdata\\local\\programs\\python\\python37\\lib\\__future__.py',
   'PYMODULE'),
  ('difflib',
   'c:\\users\\mijail '
   'qa\\appdata\\local\\programs\\python\\python37\\lib\\difflib.py',
   'PYMODULE'),
  ('ast',
   'c:\\users\\mijail '
   'qa\\appdata\\local\\programs\\python\\python37\\lib\\ast.py',
   'PYMODULE'),
  ('inspect',
   'c:\\users\\mijail '
   'qa\\appdata\\local\\programs\\python\\python37\\lib\\inspect.py',
   'PYMODULE'),
  ('cmd',
   'c:\\users\\mijail '
   'qa\\appdata\\local\\programs\\python\\python37\\lib\\cmd.py',
   'PYMODULE'),
  ('bdb',
   'c:\\users\\mijail '
   'qa\\appdata\\local\\programs\\python\\python37\\lib\\bdb.py',
   'PYMODULE'),
  ('opcode',
   'c:\\users\\mijail '
   'qa\\appdata\\local\\programs\\python\\python37\\lib\\opcode.py',
   'PYMODULE'),
  ('dis',
   'c:\\users\\mijail '
   'qa\\appdata\\local\\programs\\python\\python37\\lib\\dis.py',
   'PYMODULE'),
  ('codeop',
   'c:\\users\\mijail '
   'qa\\appdata\\local\\programs\\python\\python37\\lib\\codeop.py',
   'PYMODULE'),
  ('code',
   'c:\\users\\mijail '
   'qa\\appdata\\local\\programs\\python\\python37\\lib\\code.py',
   'PYMODULE'),
  ('glob',
   'c:\\users\\mijail '
   'qa\\appdata\\local\\programs\\python\\python37\\lib\\glob.py',
   'PYMODULE'),
  ('shlex',
   'c:\\users\\mijail '
   'qa\\appdata\\local\\programs\\python\\python37\\lib\\shlex.py',
   'PYMODULE'),
  ('runpy',
   'c:\\users\\mijail '
   'qa\\appdata\\local\\programs\\python\\python37\\lib\\runpy.py',
   'PYMODULE'),
  ('importlib._bootstrap',
   'c:\\users\\mijail '
   'qa\\appdata\\local\\programs\\python\\python37\\lib\\importlib\\_bootstrap.py',
   'PYMODULE'),
  ('importlib._bootstrap_external',
   'c:\\users\\mijail '
   'qa\\appdata\\local\\programs\\python\\python37\\lib\\importlib\\_bootstrap_external.py',
   'PYMODULE'),
  ('importlib.machinery',
   'c:\\users\\mijail '
   'qa\\appdata\\local\\programs\\python\\python37\\lib\\importlib\\machinery.py',
   'PYMODULE'),
  ('importlib.util',
   'c:\\users\\mijail '
   'qa\\appdata\\local\\programs\\python\\python37\\lib\\importlib\\util.py',
   'PYMODULE'),
  ('importlib.abc',
   'c:\\users\\mijail '
   'qa\\appdata\\local\\programs\\python\\python37\\lib\\importlib\\abc.py',
   'PYMODULE'),
  ('importlib',
   'c:\\users\\mijail '
   'qa\\appdata\\local\\programs\\python\\python37\\lib\\importlib\\__init__.py',
   'PYMODULE'),
  ('pkgutil',
   'c:\\users\\mijail '
   'qa\\appdata\\local\\programs\\python\\python37\\lib\\pkgutil.py',
   'PYMODULE'),
  ('xml',
   'c:\\users\\mijail '
   'qa\\appdata\\local\\programs\\python\\python37\\lib\\xml\\__init__.py',
   'PYMODULE'),
  ('xml.parsers',
   'c:\\users\\mijail '
   'qa\\appdata\\local\\programs\\python\\python37\\lib\\xml\\parsers\\__init__.py',
   'PYMODULE'),
  ('xml.parsers.expat',
   'c:\\users\\mijail '
   'qa\\appdata\\local\\programs\\python\\python37\\lib\\xml\\parsers\\expat.py',
   'PYMODULE'),
  ('plistlib',
   'c:\\users\\mijail '
   'qa\\appdata\\local\\programs\\python\\python37\\lib\\plistlib.py',
   'PYMODULE'),
  ('platform',
   'c:\\users\\mijail '
   'qa\\appdata\\local\\programs\\python\\python37\\lib\\platform.py',
   'PYMODULE'),
  ('token',
   'c:\\users\\mijail '
   'qa\\appdata\\local\\programs\\python\\python37\\lib\\token.py',
   'PYMODULE'),
  ('tokenize',
   'c:\\users\\mijail '
   'qa\\appdata\\local\\programs\\python\\python37\\lib\\tokenize.py',
   'PYMODULE'),
  ('urllib.parse',
   'c:\\users\\mijail '
   'qa\\appdata\\local\\programs\\python\\python37\\lib\\urllib\\parse.py',
   'PYMODULE'),
  ('tempfile',
   'c:\\users\\mijail '
   'qa\\appdata\\local\\programs\\python\\python37\\lib\\tempfile.py',
   'PYMODULE'),
  ('tty',
   'c:\\users\\mijail '
   'qa\\appdata\\local\\programs\\python\\python37\\lib\\tty.py',
   'PYMODULE'),
  ('pydoc_data',
   'c:\\users\\mijail '
   'qa\\appdata\\local\\programs\\python\\python37\\lib\\pydoc_data\\__init__.py',
   'PYMODULE'),
  ('pydoc_data.topics',
   'c:\\users\\mijail '
   'qa\\appdata\\local\\programs\\python\\python37\\lib\\pydoc_data\\topics.py',
   'PYMODULE'),
  ('html.entities',
   'c:\\users\\mijail '
   'qa\\appdata\\local\\programs\\python\\python37\\lib\\html\\entities.py',
   'PYMODULE'),
  ('html',
   'c:\\users\\mijail '
   'qa\\appdata\\local\\programs\\python\\python37\\lib\\html\\__init__.py',
   'PYMODULE'),
  ('ssl',
   'c:\\users\\mijail '
   'qa\\appdata\\local\\programs\\python\\python37\\lib\\ssl.py',
   'PYMODULE'),
  ('http.client',
   'c:\\users\\mijail '
   'qa\\appdata\\local\\programs\\python\\python37\\lib\\http\\client.py',
   'PYMODULE'),
  ('mimetypes',
   'c:\\users\\mijail '
   'qa\\appdata\\local\\programs\\python\\python37\\lib\\mimetypes.py',
   'PYMODULE'),
  ('socketserver',
   'c:\\users\\mijail '
   'qa\\appdata\\local\\programs\\python\\python37\\lib\\socketserver.py',
   'PYMODULE'),
  ('http',
   'c:\\users\\mijail '
   'qa\\appdata\\local\\programs\\python\\python37\\lib\\http\\__init__.py',
   'PYMODULE'),
  ('http.server',
   'c:\\users\\mijail '
   'qa\\appdata\\local\\programs\\python\\python37\\lib\\http\\server.py',
   'PYMODULE'),
  ('optparse',
   'c:\\users\\mijail '
   'qa\\appdata\\local\\programs\\python\\python37\\lib\\optparse.py',
   'PYMODULE'),
  ('uu',
   'c:\\users\\mijail '
   'qa\\appdata\\local\\programs\\python\\python37\\lib\\uu.py',
   'PYMODULE'),
  ('email.feedparser',
   'c:\\users\\mijail '
   'qa\\appdata\\local\\programs\\python\\python37\\lib\\email\\feedparser.py',
   'PYMODULE'),
  ('email.parser',
   'c:\\users\\mijail '
   'qa\\appdata\\local\\programs\\python\\python37\\lib\\email\\parser.py',
   'PYMODULE'),
  ('email',
   'c:\\users\\mijail '
   'qa\\appdata\\local\\programs\\python\\python37\\lib\\email\\__init__.py',
   'PYMODULE'),
  ('calendar',
   'c:\\users\\mijail '
   'qa\\appdata\\local\\programs\\python\\python37\\lib\\calendar.py',
   'PYMODULE'),
  ('email._parseaddr',
   'c:\\users\\mijail '
   'qa\\appdata\\local\\programs\\python\\python37\\lib\\email\\_parseaddr.py',
   'PYMODULE'),
  ('email.utils',
   'c:\\users\\mijail '
   'qa\\appdata\\local\\programs\\python\\python37\\lib\\email\\utils.py',
   'PYMODULE'),
  ('email.errors',
   'c:\\users\\mijail '
   'qa\\appdata\\local\\programs\\python\\python37\\lib\\email\\errors.py',
   'PYMODULE'),
  ('email.header',
   'c:\\users\\mijail '
   'qa\\appdata\\local\\programs\\python\\python37\\lib\\email\\header.py',
   'PYMODULE'),
  ('email._policybase',
   'c:\\users\\mijail '
   'qa\\appdata\\local\\programs\\python\\python37\\lib\\email\\_policybase.py',
   'PYMODULE'),
  ('email.base64mime',
   'c:\\users\\mijail '
   'qa\\appdata\\local\\programs\\python\\python37\\lib\\email\\base64mime.py',
   'PYMODULE'),
  ('email.encoders',
   'c:\\users\\mijail '
   'qa\\appdata\\local\\programs\\python\\python37\\lib\\email\\encoders.py',
   'PYMODULE'),
  ('email.charset',
   'c:\\users\\mijail '
   'qa\\appdata\\local\\programs\\python\\python37\\lib\\email\\charset.py',
   'PYMODULE'),
  ('email._encoded_words',
   'c:\\users\\mijail '
   'qa\\appdata\\local\\programs\\python\\python37\\lib\\email\\_encoded_words.py',
   'PYMODULE'),
  ('hashlib',
   'c:\\users\\mijail '
   'qa\\appdata\\local\\programs\\python\\python37\\lib\\hashlib.py',
   'PYMODULE'),
  ('bisect',
   'c:\\users\\mijail '
   'qa\\appdata\\local\\programs\\python\\python37\\lib\\bisect.py',
   'PYMODULE'),
  ('random',
   'c:\\users\\mijail '
   'qa\\appdata\\local\\programs\\python\\python37\\lib\\random.py',
   'PYMODULE'),
  ('email.generator',
   'c:\\users\\mijail '
   'qa\\appdata\\local\\programs\\python\\python37\\lib\\email\\generator.py',
   'PYMODULE'),
  ('email.iterators',
   'c:\\users\\mijail '
   'qa\\appdata\\local\\programs\\python\\python37\\lib\\email\\iterators.py',
   'PYMODULE'),
  ('urllib',
   'c:\\users\\mijail '
   'qa\\appdata\\local\\programs\\python\\python37\\lib\\urllib\\__init__.py',
   'PYMODULE'),
  ('email._header_value_parser',
   'c:\\users\\mijail '
   'qa\\appdata\\local\\programs\\python\\python37\\lib\\email\\_header_value_parser.py',
   'PYMODULE'),
  ('email.headerregistry',
   'c:\\users\\mijail '
   'qa\\appdata\\local\\programs\\python\\python37\\lib\\email\\headerregistry.py',
   'PYMODULE'),
  ('email.quoprimime',
   'c:\\users\\mijail '
   'qa\\appdata\\local\\programs\\python\\python37\\lib\\email\\quoprimime.py',
   'PYMODULE'),
  ('email.contentmanager',
   'c:\\users\\mijail '
   'qa\\appdata\\local\\programs\\python\\python37\\lib\\email\\contentmanager.py',
   'PYMODULE'),
  ('email.policy',
   'c:\\users\\mijail '
   'qa\\appdata\\local\\programs\\python\\python37\\lib\\email\\policy.py',
   'PYMODULE'),
  ('email.message',
   'c:\\users\\mijail '
   'qa\\appdata\\local\\programs\\python\\python37\\lib\\email\\message.py',
   'PYMODULE'),
  ('lzma',
   'c:\\users\\mijail '
   'qa\\appdata\\local\\programs\\python\\python37\\lib\\lzma.py',
   'PYMODULE'),
  ('gzip',
   'c:\\users\\mijail '
   'qa\\appdata\\local\\programs\\python\\python37\\lib\\gzip.py',
   'PYMODULE'),
  ('tarfile',
   'c:\\users\\mijail '
   'qa\\appdata\\local\\programs\\python\\python37\\lib\\tarfile.py',
   'PYMODULE'),
  ('py_compile',
   'c:\\users\\mijail '
   'qa\\appdata\\local\\programs\\python\\python37\\lib\\py_compile.py',
   'PYMODULE'),
  ('zipfile',
   'c:\\users\\mijail '
   'qa\\appdata\\local\\programs\\python\\python37\\lib\\zipfile.py',
   'PYMODULE'),
  ('shutil',
   'c:\\users\\mijail '
   'qa\\appdata\\local\\programs\\python\\python37\\lib\\shutil.py',
   'PYMODULE'),
  ('socket',
   'c:\\users\\mijail '
   'qa\\appdata\\local\\programs\\python\\python37\\lib\\socket.py',
   'PYMODULE'),
  ('webbrowser',
   'c:\\users\\mijail '
   'qa\\appdata\\local\\programs\\python\\python37\\lib\\webbrowser.py',
   'PYMODULE'),
  ('pydoc',
   'c:\\users\\mijail '
   'qa\\appdata\\local\\programs\\python\\python37\\lib\\pydoc.py',
   'PYMODULE'),
  ('pdb',
   'c:\\users\\mijail '
   'qa\\appdata\\local\\programs\\python\\python37\\lib\\pdb.py',
   'PYMODULE'),
  ('unittest.util',
   'c:\\users\\mijail '
   'qa\\appdata\\local\\programs\\python\\python37\\lib\\unittest\\util.py',
   'PYMODULE'),
  ('unittest.result',
   'c:\\users\\mijail '
   'qa\\appdata\\local\\programs\\python\\python37\\lib\\unittest\\result.py',
   'PYMODULE'),
  ('string',
   'c:\\users\\mijail '
   'qa\\appdata\\local\\programs\\python\\python37\\lib\\string.py',
   'PYMODULE'),
  ('logging',
   'c:\\users\\mijail '
   'qa\\appdata\\local\\programs\\python\\python37\\lib\\logging\\__init__.py',
   'PYMODULE'),
  ('unittest.case',
   'c:\\users\\mijail '
   'qa\\appdata\\local\\programs\\python\\python37\\lib\\unittest\\case.py',
   'PYMODULE'),
  ('unittest.suite',
   'c:\\users\\mijail '
   'qa\\appdata\\local\\programs\\python\\python37\\lib\\unittest\\suite.py',
   'PYMODULE'),
  ('unittest.loader',
   'c:\\users\\mijail '
   'qa\\appdata\\local\\programs\\python\\python37\\lib\\unittest\\loader.py',
   'PYMODULE'),
  ('unittest.runner',
   'c:\\users\\mijail '
   'qa\\appdata\\local\\programs\\python\\python37\\lib\\unittest\\runner.py',
   'PYMODULE'),
  ('unittest.main',
   'c:\\users\\mijail '
   'qa\\appdata\\local\\programs\\python\\python37\\lib\\unittest\\main.py',
   'PYMODULE'),
  ('unittest.signals',
   'c:\\users\\mijail '
   'qa\\appdata\\local\\programs\\python\\python37\\lib\\unittest\\signals.py',
   'PYMODULE'),
  ('unittest',
   'c:\\users\\mijail '
   'qa\\appdata\\local\\programs\\python\\python37\\lib\\unittest\\__init__.py',
   'PYMODULE'),
  ('doctest',
   'c:\\users\\mijail '
   'qa\\appdata\\local\\programs\\python\\python37\\lib\\doctest.py',
   'PYMODULE'),
  ('textwrap',
   'c:\\users\\mijail '
   'qa\\appdata\\local\\programs\\python\\python37\\lib\\textwrap.py',
   'PYMODULE'),
  ('argparse',
   'c:\\users\\mijail '
   'qa\\appdata\\local\\programs\\python\\python37\\lib\\argparse.py',
   'PYMODULE'),
  ('pprint',
   'c:\\users\\mijail '
   'qa\\appdata\\local\\programs\\python\\python37\\lib\\pprint.py',
   'PYMODULE'),
  ('pickle',
   'c:\\users\\mijail '
   'qa\\appdata\\local\\programs\\python\\python37\\lib\\pickle.py',
   'PYMODULE'),
  ('tracemalloc',
   'c:\\users\\mijail '
   'qa\\appdata\\local\\programs\\python\\python37\\lib\\tracemalloc.py',
   'PYMODULE'),
  ('_py_abc',
   'c:\\users\\mijail '
   'qa\\appdata\\local\\programs\\python\\python37\\lib\\_py_abc.py',
   'PYMODULE'),
  ('typing',
   'c:\\users\\mijail '
   'qa\\appdata\\local\\programs\\python\\python37\\lib\\typing.py',
   'PYMODULE'),
  ('quopri',
   'c:\\users\\mijail '
   'qa\\appdata\\local\\programs\\python\\python37\\lib\\quopri.py',
   'PYMODULE'),
  ('_compression',
   'c:\\users\\mijail '
   'qa\\appdata\\local\\programs\\python\\python37\\lib\\_compression.py',
   'PYMODULE'),
  ('bz2',
   'c:\\users\\mijail '
   'qa\\appdata\\local\\programs\\python\\python37\\lib\\bz2.py',
   'PYMODULE'),
  ('stringprep',
   'c:\\users\\mijail '
   'qa\\appdata\\local\\programs\\python\\python37\\lib\\stringprep.py',
   'PYMODULE'),
  ('struct',
   'c:\\users\\mijail '
   'qa\\appdata\\local\\programs\\python\\python37\\lib\\struct.py',
   'PYMODULE'),
  ('stat',
   'c:\\users\\mijail '
   'qa\\appdata\\local\\programs\\python\\python37\\lib\\stat.py',
   'PYMODULE'),
  ('genericpath',
   'c:\\users\\mijail '
   'qa\\appdata\\local\\programs\\python\\python37\\lib\\genericpath.py',
   'PYMODULE'),
  ('posixpath',
   'c:\\users\\mijail '
   'qa\\appdata\\local\\programs\\python\\python37\\lib\\posixpath.py',
   'PYMODULE'),
  ('signal',
   'c:\\users\\mijail '
   'qa\\appdata\\local\\programs\\python\\python37\\lib\\signal.py',
   'PYMODULE'),
  ('contextlib',
   'c:\\users\\mijail '
   'qa\\appdata\\local\\programs\\python\\python37\\lib\\contextlib.py',
   'PYMODULE'),
  ('_threading_local',
   'c:\\users\\mijail '
   'qa\\appdata\\local\\programs\\python\\python37\\lib\\_threading_local.py',
   'PYMODULE'),
  ('threading',
   'c:\\users\\mijail '
   'qa\\appdata\\local\\programs\\python\\python37\\lib\\threading.py',
   'PYMODULE'),
  ('selectors',
   'c:\\users\\mijail '
   'qa\\appdata\\local\\programs\\python\\python37\\lib\\selectors.py',
   'PYMODULE'),
  ('subprocess',
   'c:\\users\\mijail '
   'qa\\appdata\\local\\programs\\python\\python37\\lib\\subprocess.py',
   'PYMODULE'),
  ('os',
   'c:\\users\\mijail '
   'qa\\appdata\\local\\programs\\python\\python37\\lib\\os.py',
   'PYMODULE'),
  ('copy',
   'c:\\users\\mijail '
   'qa\\appdata\\local\\programs\\python\\python37\\lib\\copy.py',
   'PYMODULE'),
  ('gettext',
   'c:\\users\\mijail '
   'qa\\appdata\\local\\programs\\python\\python37\\lib\\gettext.py',
   'PYMODULE'),
  ('getopt',
   'c:\\users\\mijail '
   'qa\\appdata\\local\\programs\\python\\python37\\lib\\getopt.py',
   'PYMODULE'),
  ('base64',
   'c:\\users\\mijail '
   'qa\\appdata\\local\\programs\\python\\python37\\lib\\base64.py',
   'PYMODULE'),
  ('flask.json',
   'c:\\users\\mijail '
   'qa\\appdata\\local\\programs\\python\\python37\\lib\\site-packages\\flask\\json\\__init__.py',
   'PYMODULE'),
  ('dataclasses',
   'c:\\users\\mijail '
   'qa\\appdata\\local\\programs\\python\\python37\\lib\\dataclasses.py',
   'PYMODULE'),
  ('flask.globals',
   'c:\\users\\mijail '
   'qa\\appdata\\local\\programs\\python\\python37\\lib\\site-packages\\flask\\globals.py',
   'PYMODULE'),
  ('werkzeug.local',
   'c:\\users\\mijail '
   'qa\\appdata\\local\\programs\\python\\python37\\lib\\site-packages\\werkzeug\\local.py',
   'PYMODULE'),
  ('werkzeug',
   'c:\\users\\mijail '
   'qa\\appdata\\local\\programs\\python\\python37\\lib\\site-packages\\werkzeug\\__init__.py',
   'PYMODULE'),
  ('werkzeug.wrappers',
   'c:\\users\\mijail '
   'qa\\appdata\\local\\programs\\python\\python37\\lib\\site-packages\\werkzeug\\wrappers\\__init__.py',
   'PYMODULE'),
  ('werkzeug.wrappers.user_agent',
   'c:\\users\\mijail '
   'qa\\appdata\\local\\programs\\python\\python37\\lib\\site-packages\\werkzeug\\wrappers\\user_agent.py',
   'PYMODULE'),
  ('werkzeug.utils',
   'c:\\users\\mijail '
   'qa\\appdata\\local\\programs\\python\\python37\\lib\\site-packages\\werkzeug\\utils.py',
   'PYMODULE'),
  ('werkzeug.urls',
   'c:\\users\\mijail '
   'qa\\appdata\\local\\programs\\python\\python37\\lib\\site-packages\\werkzeug\\urls.py',
   'PYMODULE'),
  ('werkzeug.datastructures',
   'c:\\users\\mijail '
   'qa\\appdata\\local\\programs\\python\\python37\\lib\\site-packages\\werkzeug\\datastructures.py',
   'PYMODULE'),
  ('werkzeug.filesystem',
   'c:\\users\\mijail '
   'qa\\appdata\\local\\programs\\python\\python37\\lib\\site-packages\\werkzeug\\filesystem.py',
   'PYMODULE'),
  ('werkzeug._internal',
   'c:\\users\\mijail '
   'qa\\appdata\\local\\programs\\python\\python37\\lib\\site-packages\\werkzeug\\_internal.py',
   'PYMODULE'),
  ('werkzeug.useragents',
   'c:\\users\\mijail '
   'qa\\appdata\\local\\programs\\python\\python37\\lib\\site-packages\\werkzeug\\useragents.py',
   'PYMODULE'),
  ('werkzeug.wrappers.response',
   'c:\\users\\mijail '
   'qa\\appdata\\local\\programs\\python\\python37\\lib\\site-packages\\werkzeug\\wrappers\\response.py',
   'PYMODULE'),
  ('werkzeug.wrappers.request',
   'c:\\users\\mijail '
   'qa\\appdata\\local\\programs\\python\\python37\\lib\\site-packages\\werkzeug\\wrappers\\request.py',
   'PYMODULE'),
  ('werkzeug.wrappers.etag',
   'c:\\users\\mijail '
   'qa\\appdata\\local\\programs\\python\\python37\\lib\\site-packages\\werkzeug\\wrappers\\etag.py',
   'PYMODULE'),
  ('werkzeug.wrappers.common_descriptors',
   'c:\\users\\mijail '
   'qa\\appdata\\local\\programs\\python\\python37\\lib\\site-packages\\werkzeug\\wrappers\\common_descriptors.py',
   'PYMODULE'),
  ('werkzeug.wrappers.base_response',
   'c:\\users\\mijail '
   'qa\\appdata\\local\\programs\\python\\python37\\lib\\site-packages\\werkzeug\\wrappers\\base_response.py',
   'PYMODULE'),
  ('werkzeug.wrappers.base_request',
   'c:\\users\\mijail '
   'qa\\appdata\\local\\programs\\python\\python37\\lib\\site-packages\\werkzeug\\wrappers\\base_request.py',
   'PYMODULE'),
  ('werkzeug.formparser',
   'c:\\users\\mijail '
   'qa\\appdata\\local\\programs\\python\\python37\\lib\\site-packages\\werkzeug\\formparser.py',
   'PYMODULE'),
  ('werkzeug.wrappers.auth',
   'c:\\users\\mijail '
   'qa\\appdata\\local\\programs\\python\\python37\\lib\\site-packages\\werkzeug\\wrappers\\auth.py',
   'PYMODULE'),
  ('werkzeug.wrappers.accept',
   'c:\\users\\mijail '
   'qa\\appdata\\local\\programs\\python\\python37\\lib\\site-packages\\werkzeug\\wrappers\\accept.py',
   'PYMODULE'),
  ('werkzeug.test',
   'c:\\users\\mijail '
   'qa\\appdata\\local\\programs\\python\\python37\\lib\\site-packages\\werkzeug\\test.py',
   'PYMODULE'),
  ('werkzeug.serving',
   'c:\\users\\mijail '
   'qa\\appdata\\local\\programs\\python\\python37\\lib\\site-packages\\werkzeug\\serving.py',
   'PYMODULE'),
  ('werkzeug._reloader',
   'c:\\users\\mijail '
   'qa\\appdata\\local\\programs\\python\\python37\\lib\\site-packages\\werkzeug\\_reloader.py',
   'PYMODULE'),
  ('werkzeug.middleware.shared_data',
   'c:\\users\\mijail '
   'qa\\appdata\\local\\programs\\python\\python37\\lib\\site-packages\\werkzeug\\middleware\\shared_data.py',
   'PYMODULE'),
  ('werkzeug.middleware',
   'c:\\users\\mijail '
   'qa\\appdata\\local\\programs\\python\\python37\\lib\\site-packages\\werkzeug\\middleware\\__init__.py',
   'PYMODULE'),
  ('werkzeug.security',
   'c:\\users\\mijail '
   'qa\\appdata\\local\\programs\\python\\python37\\lib\\site-packages\\werkzeug\\security.py',
   'PYMODULE'),
  ('werkzeug.debug',
   'c:\\users\\mijail '
   'qa\\appdata\\local\\programs\\python\\python37\\lib\\site-packages\\werkzeug\\debug\\__init__.py',
   'PYMODULE'),
  ('werkzeug.debug.repr',
   'c:\\users\\mijail '
   'qa\\appdata\\local\\programs\\python\\python37\\lib\\site-packages\\werkzeug\\debug\\repr.py',
   'PYMODULE'),
  ('werkzeug.debug.console',
   'c:\\users\\mijail '
   'qa\\appdata\\local\\programs\\python\\python37\\lib\\site-packages\\werkzeug\\debug\\console.py',
   'PYMODULE'),
  ('werkzeug.debug.tbtools',
   'c:\\users\\mijail '
   'qa\\appdata\\local\\programs\\python\\python37\\lib\\site-packages\\werkzeug\\debug\\tbtools.py',
   'PYMODULE'),
  ('werkzeug.exceptions',
   'c:\\users\\mijail '
   'qa\\appdata\\local\\programs\\python\\python37\\lib\\site-packages\\werkzeug\\exceptions.py',
   'PYMODULE'),
  ('werkzeug.wsgi',
   'c:\\users\\mijail '
   'qa\\appdata\\local\\programs\\python\\python37\\lib\\site-packages\\werkzeug\\wsgi.py',
   'PYMODULE'),
  ('werkzeug._compat',
   'c:\\users\\mijail '
   'qa\\appdata\\local\\programs\\python\\python37\\lib\\site-packages\\werkzeug\\_compat.py',
   'PYMODULE'),
  ('flask._compat',
   'c:\\users\\mijail '
   'qa\\appdata\\local\\programs\\python\\python37\\lib\\site-packages\\flask\\_compat.py',
   'PYMODULE'),
  ('werkzeug.http',
   'c:\\users\\mijail '
   'qa\\appdata\\local\\programs\\python\\python37\\lib\\site-packages\\werkzeug\\http.py',
   'PYMODULE'),
  ('jinja2',
   'c:\\users\\mijail '
   'qa\\appdata\\local\\programs\\python\\python37\\lib\\site-packages\\jinja2\\__init__.py',
   'PYMODULE'),
  ('jinja2.ext',
   'c:\\users\\mijail '
   'qa\\appdata\\local\\programs\\python\\python37\\lib\\site-packages\\jinja2\\ext.py',
   'PYMODULE'),
  ('jinja2._compat',
   'c:\\users\\mijail '
   'qa\\appdata\\local\\programs\\python\\python37\\lib\\site-packages\\jinja2\\_compat.py',
   'PYMODULE'),
  ('jinja2.defaults',
   'c:\\users\\mijail '
   'qa\\appdata\\local\\programs\\python\\python37\\lib\\site-packages\\jinja2\\defaults.py',
   'PYMODULE'),
  ('jinja2.tests',
   'c:\\users\\mijail '
   'qa\\appdata\\local\\programs\\python\\python37\\lib\\site-packages\\jinja2\\tests.py',
   'PYMODULE'),
  ('jinja2.asyncsupport',
   'c:\\users\\mijail '
   'qa\\appdata\\local\\programs\\python\\python37\\lib\\site-packages\\jinja2\\asyncsupport.py',
   'PYMODULE'),
  ('jinja2.asyncfilters',
   'c:\\users\\mijail '
   'qa\\appdata\\local\\programs\\python\\python37\\lib\\site-packages\\jinja2\\asyncfilters.py',
   'PYMODULE'),
  ('asyncio',
   'c:\\users\\mijail '
   'qa\\appdata\\local\\programs\\python\\python37\\lib\\asyncio\\__init__.py',
   'PYMODULE'),
  ('asyncio.unix_events',
   'c:\\users\\mijail '
   'qa\\appdata\\local\\programs\\python\\python37\\lib\\asyncio\\unix_events.py',
   'PYMODULE'),
  ('asyncio.log',
   'c:\\users\\mijail '
   'qa\\appdata\\local\\programs\\python\\python37\\lib\\asyncio\\log.py',
   'PYMODULE'),
  ('asyncio.windows_events',
   'c:\\users\\mijail '
   'qa\\appdata\\local\\programs\\python\\python37\\lib\\asyncio\\windows_events.py',
   'PYMODULE'),
  ('asyncio.windows_utils',
   'c:\\users\\mijail '
   'qa\\appdata\\local\\programs\\python\\python37\\lib\\asyncio\\windows_utils.py',
   'PYMODULE'),
  ('asyncio.selector_events',
   'c:\\users\\mijail '
   'qa\\appdata\\local\\programs\\python\\python37\\lib\\asyncio\\selector_events.py',
   'PYMODULE'),
  ('asyncio.proactor_events',
   'c:\\users\\mijail '
   'qa\\appdata\\local\\programs\\python\\python37\\lib\\asyncio\\proactor_events.py',
   'PYMODULE'),
  ('asyncio.base_subprocess',
   'c:\\users\\mijail '
   'qa\\appdata\\local\\programs\\python\\python37\\lib\\asyncio\\base_subprocess.py',
   'PYMODULE'),
  ('asyncio.subprocess',
   'c:\\users\\mijail '
   'qa\\appdata\\local\\programs\\python\\python37\\lib\\asyncio\\subprocess.py',
   'PYMODULE'),
  ('asyncio.streams',
   'c:\\users\\mijail '
   'qa\\appdata\\local\\programs\\python\\python37\\lib\\asyncio\\streams.py',
   'PYMODULE'),
  ('asyncio.queues',
   'c:\\users\\mijail '
   'qa\\appdata\\local\\programs\\python\\python37\\lib\\asyncio\\queues.py',
   'PYMODULE'),
  ('asyncio.runners',
   'c:\\users\\mijail '
   'qa\\appdata\\local\\programs\\python\\python37\\lib\\asyncio\\runners.py',
   'PYMODULE'),
  ('asyncio.tasks',
   'c:\\users\\mijail '
   'qa\\appdata\\local\\programs\\python\\python37\\lib\\asyncio\\tasks.py',
   'PYMODULE'),
  ('concurrent.futures',
   'c:\\users\\mijail '
   'qa\\appdata\\local\\programs\\python\\python37\\lib\\concurrent\\futures\\__init__.py',
   'PYMODULE'),
  ('concurrent.futures.thread',
   'c:\\users\\mijail '
   'qa\\appdata\\local\\programs\\python\\python37\\lib\\concurrent\\futures\\thread.py',
   'PYMODULE'),
  ('concurrent.futures.process',
   'c:\\users\\mijail '
   'qa\\appdata\\local\\programs\\python\\python37\\lib\\concurrent\\futures\\process.py',
   'PYMODULE'),
  ('concurrent.futures._base',
   'c:\\users\\mijail '
   'qa\\appdata\\local\\programs\\python\\python37\\lib\\concurrent\\futures\\_base.py',
   'PYMODULE'),
  ('concurrent',
   'c:\\users\\mijail '
   'qa\\appdata\\local\\programs\\python\\python37\\lib\\concurrent\\__init__.py',
   'PYMODULE'),
  ('asyncio.locks',
   'c:\\users\\mijail '
   'qa\\appdata\\local\\programs\\python\\python37\\lib\\asyncio\\locks.py',
   'PYMODULE'),
  ('asyncio.base_tasks',
   'c:\\users\\mijail '
   'qa\\appdata\\local\\programs\\python\\python37\\lib\\asyncio\\base_tasks.py',
   'PYMODULE'),
  ('asyncio.sslproto',
   'c:\\users\\mijail '
   'qa\\appdata\\local\\programs\\python\\python37\\lib\\asyncio\\sslproto.py',
   'PYMODULE'),
  ('asyncio.transports',
   'c:\\users\\mijail '
   'qa\\appdata\\local\\programs\\python\\python37\\lib\\asyncio\\transports.py',
   'PYMODULE'),
  ('asyncio.base_events',
   'c:\\users\\mijail '
   'qa\\appdata\\local\\programs\\python\\python37\\lib\\asyncio\\base_events.py',
   'PYMODULE'),
  ('asyncio.protocols',
   'c:\\users\\mijail '
   'qa\\appdata\\local\\programs\\python\\python37\\lib\\asyncio\\protocols.py',
   'PYMODULE'),
  ('asyncio.futures',
   'c:\\users\\mijail '
   'qa\\appdata\\local\\programs\\python\\python37\\lib\\asyncio\\futures.py',
   'PYMODULE'),
  ('asyncio.events',
   'c:\\users\\mijail '
   'qa\\appdata\\local\\programs\\python\\python37\\lib\\asyncio\\events.py',
   'PYMODULE'),
  ('asyncio.coroutines',
   'c:\\users\\mijail '
   'qa\\appdata\\local\\programs\\python\\python37\\lib\\asyncio\\coroutines.py',
   'PYMODULE'),
  ('asyncio.base_futures',
   'c:\\users\\mijail '
   'qa\\appdata\\local\\programs\\python\\python37\\lib\\asyncio\\base_futures.py',
   'PYMODULE'),
  ('asyncio.format_helpers',
   'c:\\users\\mijail '
   'qa\\appdata\\local\\programs\\python\\python37\\lib\\asyncio\\format_helpers.py',
   'PYMODULE'),
  ('asyncio.constants',
   'c:\\users\\mijail '
   'qa\\appdata\\local\\programs\\python\\python37\\lib\\asyncio\\constants.py',
   'PYMODULE'),
  ('jinja2.utils',
   'c:\\users\\mijail '
   'qa\\appdata\\local\\programs\\python\\python37\\lib\\site-packages\\jinja2\\utils.py',
   'PYMODULE'),
  ('markupsafe',
   'c:\\users\\mijail '
   'qa\\appdata\\local\\programs\\python\\python37\\lib\\site-packages\\markupsafe\\__init__.py',
   'PYMODULE'),
  ('markupsafe._native',
   'c:\\users\\mijail '
   'qa\\appdata\\local\\programs\\python\\python37\\lib\\site-packages\\markupsafe\\_native.py',
   'PYMODULE'),
  ('markupsafe._constants',
   'c:\\users\\mijail '
   'qa\\appdata\\local\\programs\\python\\python37\\lib\\site-packages\\markupsafe\\_constants.py',
   'PYMODULE'),
  ('markupsafe._compat',
   'c:\\users\\mijail '
   'qa\\appdata\\local\\programs\\python\\python37\\lib\\site-packages\\markupsafe\\_compat.py',
   'PYMODULE'),
  ('jinja2.constants',
   'c:\\users\\mijail '
   'qa\\appdata\\local\\programs\\python\\python37\\lib\\site-packages\\jinja2\\constants.py',
   'PYMODULE'),
  ('jinja2.lexer',
   'c:\\users\\mijail '
   'qa\\appdata\\local\\programs\\python\\python37\\lib\\site-packages\\jinja2\\lexer.py',
   'PYMODULE'),
  ('jinja2.filters',
   'c:\\users\\mijail '
   'qa\\appdata\\local\\programs\\python\\python37\\lib\\site-packages\\jinja2\\filters.py',
   'PYMODULE'),
  ('jinja2.exceptions',
   'c:\\users\\mijail '
   'qa\\appdata\\local\\programs\\python\\python37\\lib\\site-packages\\jinja2\\exceptions.py',
   'PYMODULE'),
  ('jinja2.runtime',
   'c:\\users\\mijail '
   'qa\\appdata\\local\\programs\\python\\python37\\lib\\site-packages\\jinja2\\runtime.py',
   'PYMODULE'),
  ('jinja2.bccache',
   'c:\\users\\mijail '
   'qa\\appdata\\local\\programs\\python\\python37\\lib\\site-packages\\jinja2\\bccache.py',
   'PYMODULE'),
  ('jinja2.loaders',
   'c:\\users\\mijail '
   'qa\\appdata\\local\\programs\\python\\python37\\lib\\site-packages\\jinja2\\loaders.py',
   'PYMODULE'),
  ('jinja2.environment',
   'c:\\users\\mijail '
   'qa\\appdata\\local\\programs\\python\\python37\\lib\\site-packages\\jinja2\\environment.py',
   'PYMODULE'),
  ('jinja2.debug',
   'c:\\users\\mijail '
   'qa\\appdata\\local\\programs\\python\\python37\\lib\\site-packages\\jinja2\\debug.py',
   'PYMODULE'),
  ('jinja2.compiler',
   'c:\\users\\mijail '
   'qa\\appdata\\local\\programs\\python\\python37\\lib\\site-packages\\jinja2\\compiler.py',
   'PYMODULE'),
  ('jinja2.idtracking',
   'c:\\users\\mijail '
   'qa\\appdata\\local\\programs\\python\\python37\\lib\\site-packages\\jinja2\\idtracking.py',
   'PYMODULE'),
  ('jinja2.optimizer',
   'c:\\users\\mijail '
   'qa\\appdata\\local\\programs\\python\\python37\\lib\\site-packages\\jinja2\\optimizer.py',
   'PYMODULE'),
  ('jinja2.visitor',
   'c:\\users\\mijail '
   'qa\\appdata\\local\\programs\\python\\python37\\lib\\site-packages\\jinja2\\visitor.py',
   'PYMODULE'),
  ('jinja2.parser',
   'c:\\users\\mijail '
   'qa\\appdata\\local\\programs\\python\\python37\\lib\\site-packages\\jinja2\\parser.py',
   'PYMODULE'),
  ('jinja2.nodes',
   'c:\\users\\mijail '
   'qa\\appdata\\local\\programs\\python\\python37\\lib\\site-packages\\jinja2\\nodes.py',
   'PYMODULE'),
  ('jinja2._identifier',
   'c:\\users\\mijail '
   'qa\\appdata\\local\\programs\\python\\python37\\lib\\site-packages\\jinja2\\_identifier.py',
   'PYMODULE'),
  ('itsdangerous',
   'c:\\users\\mijail '
   'qa\\appdata\\local\\programs\\python\\python37\\lib\\site-packages\\itsdangerous\\__init__.py',
   'PYMODULE'),
  ('itsdangerous.url_safe',
   'c:\\users\\mijail '
   'qa\\appdata\\local\\programs\\python\\python37\\lib\\site-packages\\itsdangerous\\url_safe.py',
   'PYMODULE'),
  ('itsdangerous.timed',
   'c:\\users\\mijail '
   'qa\\appdata\\local\\programs\\python\\python37\\lib\\site-packages\\itsdangerous\\timed.py',
   'PYMODULE'),
  ('itsdangerous._compat',
   'c:\\users\\mijail '
   'qa\\appdata\\local\\programs\\python\\python37\\lib\\site-packages\\itsdangerous\\_compat.py',
   'PYMODULE'),
  ('itsdangerous.signer',
   'c:\\users\\mijail '
   'qa\\appdata\\local\\programs\\python\\python37\\lib\\site-packages\\itsdangerous\\signer.py',
   'PYMODULE'),
  ('itsdangerous.serializer',
   'c:\\users\\mijail '
   'qa\\appdata\\local\\programs\\python\\python37\\lib\\site-packages\\itsdangerous\\serializer.py',
   'PYMODULE'),
  ('itsdangerous.jws',
   'c:\\users\\mijail '
   'qa\\appdata\\local\\programs\\python\\python37\\lib\\site-packages\\itsdangerous\\jws.py',
   'PYMODULE'),
  ('itsdangerous.exc',
   'c:\\users\\mijail '
   'qa\\appdata\\local\\programs\\python\\python37\\lib\\site-packages\\itsdangerous\\exc.py',
   'PYMODULE'),
  ('itsdangerous.encoding',
   'c:\\users\\mijail '
   'qa\\appdata\\local\\programs\\python\\python37\\lib\\site-packages\\itsdangerous\\encoding.py',
   'PYMODULE'),
  ('itsdangerous._json',
   'c:\\users\\mijail '
   'qa\\appdata\\local\\programs\\python\\python37\\lib\\site-packages\\itsdangerous\\_json.py',
   'PYMODULE'),
  ('json',
   'c:\\users\\mijail '
   'qa\\appdata\\local\\programs\\python\\python37\\lib\\json\\__init__.py',
   'PYMODULE'),
  ('json.encoder',
   'c:\\users\\mijail '
   'qa\\appdata\\local\\programs\\python\\python37\\lib\\json\\encoder.py',
   'PYMODULE'),
  ('json.decoder',
   'c:\\users\\mijail '
   'qa\\appdata\\local\\programs\\python\\python37\\lib\\json\\decoder.py',
   'PYMODULE'),
  ('json.scanner',
   'c:\\users\\mijail '
   'qa\\appdata\\local\\programs\\python\\python37\\lib\\json\\scanner.py',
   'PYMODULE'),
  ('flask_mysqldb',
   'c:\\users\\mijail '
   'qa\\appdata\\local\\programs\\python\\python37\\lib\\site-packages\\flask_mysqldb\\__init__.py',
   'PYMODULE'),
  ('MySQLdb.cursors',
   'c:\\users\\mijail '
   'qa\\appdata\\local\\programs\\python\\python37\\lib\\site-packages\\MySQLdb\\cursors.py',
   'PYMODULE'),
  ('MySQLdb._exceptions',
   'c:\\users\\mijail '
   'qa\\appdata\\local\\programs\\python\\python37\\lib\\site-packages\\MySQLdb\\_exceptions.py',
   'PYMODULE'),
  ('MySQLdb.compat',
   'c:\\users\\mijail '
   'qa\\appdata\\local\\programs\\python\\python37\\lib\\site-packages\\MySQLdb\\compat.py',
   'PYMODULE'),
  ('MySQLdb',
   'c:\\users\\mijail '
   'qa\\appdata\\local\\programs\\python\\python37\\lib\\site-packages\\MySQLdb\\__init__.py',
   'PYMODULE'),
  ('MySQLdb.connections',
   'c:\\users\\mijail '
   'qa\\appdata\\local\\programs\\python\\python37\\lib\\site-packages\\MySQLdb\\connections.py',
   'PYMODULE'),
  ('MySQLdb.converters',
   'c:\\users\\mijail '
   'qa\\appdata\\local\\programs\\python\\python37\\lib\\site-packages\\MySQLdb\\converters.py',
   'PYMODULE'),
  ('MySQLdb.constants.FLAG',
   'c:\\users\\mijail '
   'qa\\appdata\\local\\programs\\python\\python37\\lib\\site-packages\\MySQLdb\\constants\\FLAG.py',
   'PYMODULE'),
  ('MySQLdb.constants.CLIENT',
   'c:\\users\\mijail '
   'qa\\appdata\\local\\programs\\python\\python37\\lib\\site-packages\\MySQLdb\\constants\\CLIENT.py',
   'PYMODULE'),
  ('MySQLdb.times',
   'c:\\users\\mijail '
   'qa\\appdata\\local\\programs\\python\\python37\\lib\\site-packages\\MySQLdb\\times.py',
   'PYMODULE'),
  ('MySQLdb.constants.FIELD_TYPE',
   'c:\\users\\mijail '
   'qa\\appdata\\local\\programs\\python\\python37\\lib\\site-packages\\MySQLdb\\constants\\FIELD_TYPE.py',
   'PYMODULE'),
  ('MySQLdb.constants',
   'c:\\users\\mijail '
   'qa\\appdata\\local\\programs\\python\\python37\\lib\\site-packages\\MySQLdb\\constants\\__init__.py',
   'PYMODULE'),
  ('MySQLdb.release',
   'c:\\users\\mijail '
   'qa\\appdata\\local\\programs\\python\\python37\\lib\\site-packages\\MySQLdb\\release.py',
   'PYMODULE'),
  ('flask',
   'c:\\users\\mijail '
   'qa\\appdata\\local\\programs\\python\\python37\\lib\\site-packages\\flask\\__init__.py',
   'PYMODULE'),
  ('flask.templating',
   'c:\\users\\mijail '
   'qa\\appdata\\local\\programs\\python\\python37\\lib\\site-packages\\flask\\templating.py',
   'PYMODULE'),
  ('flask.debughelpers',
   'c:\\users\\mijail '
   'qa\\appdata\\local\\programs\\python\\python37\\lib\\site-packages\\flask\\debughelpers.py',
   'PYMODULE'),
  ('flask.signals',
   'c:\\users\\mijail '
   'qa\\appdata\\local\\programs\\python\\python37\\lib\\site-packages\\flask\\signals.py',
   'PYMODULE'),
  ('flask.helpers',
   'c:\\users\\mijail '
   'qa\\appdata\\local\\programs\\python\\python37\\lib\\site-packages\\flask\\helpers.py',
   'PYMODULE'),
  ('werkzeug.routing',
   'c:\\users\\mijail '
   'qa\\appdata\\local\\programs\\python\\python37\\lib\\site-packages\\werkzeug\\routing.py',
   'PYMODULE'),
  ('flask.ctx',
   'c:\\users\\mijail '
   'qa\\appdata\\local\\programs\\python\\python37\\lib\\site-packages\\flask\\ctx.py',
   'PYMODULE'),
  ('flask.config',
   'c:\\users\\mijail '
   'qa\\appdata\\local\\programs\\python\\python37\\lib\\site-packages\\flask\\config.py',
   'PYMODULE'),
  ('flask.blueprints',
   'c:\\users\\mijail '
   'qa\\appdata\\local\\programs\\python\\python37\\lib\\site-packages\\flask\\blueprints.py',
   'PYMODULE'),
  ('flask.app',
   'c:\\users\\mijail '
   'qa\\appdata\\local\\programs\\python\\python37\\lib\\site-packages\\flask\\app.py',
   'PYMODULE'),
  ('flask.testing',
   'c:\\users\\mijail '
   'qa\\appdata\\local\\programs\\python\\python37\\lib\\site-packages\\flask\\testing.py',
   'PYMODULE'),
  ('click.testing',
   'c:\\users\\mijail '
   'qa\\appdata\\local\\programs\\python\\python37\\lib\\site-packages\\click\\testing.py',
   'PYMODULE'),
  ('click',
   'c:\\users\\mijail '
   'qa\\appdata\\local\\programs\\python\\python37\\lib\\site-packages\\click\\__init__.py',
   'PYMODULE'),
  ('click.parser',
   'c:\\users\\mijail '
   'qa\\appdata\\local\\programs\\python\\python37\\lib\\site-packages\\click\\parser.py',
   'PYMODULE'),
  ('click.formatting',
   'c:\\users\\mijail '
   'qa\\appdata\\local\\programs\\python\\python37\\lib\\site-packages\\click\\formatting.py',
   'PYMODULE'),
  ('click._textwrap',
   'c:\\users\\mijail '
   'qa\\appdata\\local\\programs\\python\\python37\\lib\\site-packages\\click\\_textwrap.py',
   'PYMODULE'),
  ('click.exceptions',
   'c:\\users\\mijail '
   'qa\\appdata\\local\\programs\\python\\python37\\lib\\site-packages\\click\\exceptions.py',
   'PYMODULE'),
  ('click.termui',
   'c:\\users\\mijail '
   'qa\\appdata\\local\\programs\\python\\python37\\lib\\site-packages\\click\\termui.py',
   'PYMODULE'),
  ('click._termui_impl',
   'c:\\users\\mijail '
   'qa\\appdata\\local\\programs\\python\\python37\\lib\\site-packages\\click\\_termui_impl.py',
   'PYMODULE'),
  ('click.utils',
   'c:\\users\\mijail '
   'qa\\appdata\\local\\programs\\python\\python37\\lib\\site-packages\\click\\utils.py',
   'PYMODULE'),
  ('click._winconsole',
   'c:\\users\\mijail '
   'qa\\appdata\\local\\programs\\python\\python37\\lib\\site-packages\\click\\_winconsole.py',
   'PYMODULE'),
  ('ctypes.wintypes',
   'c:\\users\\mijail '
   'qa\\appdata\\local\\programs\\python\\python37\\lib\\ctypes\\wintypes.py',
   'PYMODULE'),
  ('click.types',
   'c:\\users\\mijail '
   'qa\\appdata\\local\\programs\\python\\python37\\lib\\site-packages\\click\\types.py',
   'PYMODULE'),
  ('click.decorators',
   'c:\\users\\mijail '
   'qa\\appdata\\local\\programs\\python\\python37\\lib\\site-packages\\click\\decorators.py',
   'PYMODULE'),
  ('click._unicodefun',
   'c:\\users\\mijail '
   'qa\\appdata\\local\\programs\\python\\python37\\lib\\site-packages\\click\\_unicodefun.py',
   'PYMODULE'),
  ('click.globals',
   'c:\\users\\mijail '
   'qa\\appdata\\local\\programs\\python\\python37\\lib\\site-packages\\click\\globals.py',
   'PYMODULE'),
  ('click.core',
   'c:\\users\\mijail '
   'qa\\appdata\\local\\programs\\python\\python37\\lib\\site-packages\\click\\core.py',
   'PYMODULE'),
  ('click._bashcomplete',
   'c:\\users\\mijail '
   'qa\\appdata\\local\\programs\\python\\python37\\lib\\site-packages\\click\\_bashcomplete.py',
   'PYMODULE'),
  ('click._compat',
   'c:\\users\\mijail '
   'qa\\appdata\\local\\programs\\python\\python37\\lib\\site-packages\\click\\_compat.py',
   'PYMODULE'),
  ('colorama',
   'C:\\Users\\Mijail '
   'QA\\AppData\\Roaming\\Python\\Python37\\site-packages\\colorama\\__init__.py',
   'PYMODULE'),
  ('colorama.ansitowin32',
   'C:\\Users\\Mijail '
   'QA\\AppData\\Roaming\\Python\\Python37\\site-packages\\colorama\\ansitowin32.py',
   'PYMODULE'),
  ('colorama.winterm',
   'C:\\Users\\Mijail '
   'QA\\AppData\\Roaming\\Python\\Python37\\site-packages\\colorama\\winterm.py',
   'PYMODULE'),
  ('colorama.ansi',
   'C:\\Users\\Mijail '
   'QA\\AppData\\Roaming\\Python\\Python37\\site-packages\\colorama\\ansi.py',
   'PYMODULE'),
  ('colorama.initialise',
   'C:\\Users\\Mijail '
   'QA\\AppData\\Roaming\\Python\\Python37\\site-packages\\colorama\\initialise.py',
   'PYMODULE'),
  ('colorama.win32',
   'C:\\Users\\Mijail '
   'QA\\AppData\\Roaming\\Python\\Python37\\site-packages\\colorama\\win32.py',
   'PYMODULE'),
  ('flask.wrappers',
   'c:\\users\\mijail '
   'qa\\appdata\\local\\programs\\python\\python37\\lib\\site-packages\\flask\\wrappers.py',
   'PYMODULE'),
  ('werkzeug.wrappers.json',
   'c:\\users\\mijail '
   'qa\\appdata\\local\\programs\\python\\python37\\lib\\site-packages\\werkzeug\\wrappers\\json.py',
   'PYMODULE'),
  ('flask.sessions',
   'c:\\users\\mijail '
   'qa\\appdata\\local\\programs\\python\\python37\\lib\\site-packages\\flask\\sessions.py',
   'PYMODULE'),
  ('flask.json.tag',
   'c:\\users\\mijail '
   'qa\\appdata\\local\\programs\\python\\python37\\lib\\site-packages\\flask\\json\\tag.py',
   'PYMODULE'),
  ('flask.logging',
   'c:\\users\\mijail '
   'qa\\appdata\\local\\programs\\python\\python37\\lib\\site-packages\\flask\\logging.py',
   'PYMODULE'),
  ('flask.cli',
   'c:\\users\\mijail '
   'qa\\appdata\\local\\programs\\python\\python37\\lib\\site-packages\\flask\\cli.py',
   'PYMODULE')])
